PD1_DF_DIP2.CSV

Record Length,2.500000e+03,,   0.045550000000,   1.52000,
Sample Interval,1.000000e-06,,   0.045551000000,   1.52000,
Trigger Point,-4.555000000000e+04,,   0.045552000000,   1.52800,
,,,   0.045553000000,   1.52800,
,,,   0.045554000000,   1.52800,
,,,   0.045555000000,   1.52000,
Source,CH2,,   0.045556000000,   1.52000,
Vertical Units,V,,   0.045557000000,   1.52800,
Vertical Scale,2.000000e-01,,   0.045558000000,   1.52800,
Vertical Offset,-1.056000e+00,,   0.045559000000,   1.52000,
Horizontal Units,s,,   0.045560000000,   1.52000,
Horizontal Scale,2.500000e-04,,   0.045561000000,   1.52000,
Pt Fmt,Y,,   0.045562000000,   1.52800,
Yzero,0.000000e+00,,   0.045563000000,   1.52000,
Probe Atten,1.000000e+00,,   0.045564000000,   1.52800,
Model Number,TDS2024B,,   0.045565000000,   1.52800,
Serial Number,C104837,,   0.045566000000,   1.52800,
Firmware Version,FV:v24.02,,   0.045567000000,   1.52000,
,,,0.045568000000,   1.52800,
,,,0.045569000000,   1.52800,
,,,0.045570000000,   1.52800,
,,,0.045571000000,   1.52000,
,,,0.045572000000,   1.52000,
,,,0.045573000000,   1.52800,
,,,0.045574000000,   1.52000,
,,,0.045575000000,   1.52800,
,,,0.045576000000,   1.52000,
,,,0.045577000000,   1.52800,
,,,0.045578000000,   1.52800,
,,,0.045579000000,   1.52800,
,,,0.045580000000,   1.52800,
,,,0.045581000000,   1.52800,
,,,0.045582000000,   1.52800,
,,,0.045583000000,   1.52800,
,,,0.045584000000,   1.52800,
,,,0.045585000000,   1.52800,
,,,0.045586000000,   1.52800,
,,,0.045587000000,   1.52800,
,,,0.045588000000,   1.52800,
,,,0.045589000000,   1.52800,
,,,0.045590000000,   1.52800,
,,,0.045591000000,   1.52800,
,,,0.045592000000,   1.52800,
,,,0.045593000000,   1.52800,
,,,0.045594000000,   1.52800,
,,,0.045595000000,   1.52800,
,,,0.045596000000,   1.52800,
,,,0.045597000000,   1.52800,
,,,0.045598000000,   1.52800,
,,,0.045599000000,   1.52800,
,,,0.045600000000,   1.52800,
,,,0.045601000000,   1.52800,
,,,0.045602000000,   1.52800,
,,,0.045603000000,   1.52800,
,,,0.045604000000,   1.52800,
,,,0.045605000000,   1.52800,
,,,0.045606000000,   1.52800,
,,,0.045607000000,   1.52800,
,,,0.045608000000,   1.52800,
,,,0.045609000000,   1.52800,
,,,0.045610000000,   1.52800,
,,,0.045611000000,   1.52800,
,,,0.045612000000,   1.53600,
,,,0.045613000000,   1.52800,
,,,0.045614000000,   1.52800,
,,,0.045615000000,   1.52800,
,,,0.045616000000,   1.52800,
,,,0.045617000000,   1.52800,
,,,0.045618000000,   1.53600,
,,,0.045619000000,   1.52800,
,,,0.045620000000,   1.52800,
,,,0.045621000000,   1.52800,
,,,0.045622000000,   1.53600,
,,,0.045623000000,   1.53600,
,,,0.045624000000,   1.52800,
,,,0.045625000000,   1.52800,
,,,0.045626000000,   1.52800,
,,,0.045627000000,   1.52800,
,,,0.045628000000,   1.53600,
,,,0.045629000000,   1.53600,
,,,0.045630000000,   1.52800,
,,,0.045631000000,   1.52800,
,,,0.045632000000,   1.53600,
,,,0.045633000000,   1.53600,
,,,0.045634000000,   1.52800,
,,,0.045635000000,   1.53600,
,,,0.045636000000,   1.53600,
,,,0.045637000000,   1.52800,
,,,0.045638000000,   1.53600,
,,,0.045639000000,   1.52800,
,,,0.045640000000,   1.53600,
,,,0.045641000000,   1.52800,
,,,0.045642000000,   1.53600,
,,,0.045643000000,   1.53600,
,,,0.045644000000,   1.53600,
,,,0.045645000000,   1.53600,
,,,0.045646000000,   1.52800,
,,,0.045647000000,   1.53600,
,,,0.045648000000,   1.52800,
,,,0.045649000000,   1.52800,
,,,0.045650000000,   1.53600,
,,,0.045651000000,   1.53600,
,,,0.045652000000,   1.53600,
,,,0.045653000000,   1.53600,
,,,0.045654000000,   1.53600,
,,,0.045655000000,   1.53600,
,,,0.045656000000,   1.53600,
,,,0.045657000000,   1.53600,
,,,0.045658000000,   1.53600,
,,,0.045659000000,   1.52800,
,,,0.045660000000,   1.53600,
,,,0.045661000000,   1.53600,
,,,0.045662000000,   1.53600,
,,,0.045663000000,   1.53600,
,,,0.045664000000,   1.53600,
,,,0.045665000000,   1.53600,
,,,0.045666000000,   1.53600,
,,,0.045667000000,   1.53600,
,,,0.045668000000,   1.53600,
,,,0.045669000000,   1.53600,
,,,0.045670000000,   1.53600,
,,,0.045671000000,   1.53600,
,,,0.045672000000,   1.53600,
,,,0.045673000000,   1.53600,
,,,0.045674000000,   1.53600,
,,,0.045675000000,   1.53600,
,,,0.045676000000,   1.53600,
,,,0.045677000000,   1.53600,
,,,0.045678000000,   1.53600,
,,,0.045679000000,   1.54400,
,,,0.045680000000,   1.53600,
,,,0.045681000000,   1.53600,
,,,0.045682000000,   1.53600,
,,,0.045683000000,   1.53600,
,,,0.045684000000,   1.53600,
,,,0.045685000000,   1.53600,
,,,0.045686000000,   1.53600,
,,,0.045687000000,   1.54400,
,,,0.045688000000,   1.53600,
,,,0.045689000000,   1.53600,
,,,0.045690000000,   1.54400,
,,,0.045691000000,   1.54400,
,,,0.045692000000,   1.54400,
,,,0.045693000000,   1.54400,
,,,0.045694000000,   1.54400,
,,,0.045695000000,   1.53600,
,,,0.045696000000,   1.54400,
,,,0.045697000000,   1.53600,
,,,0.045698000000,   1.53600,
,,,0.045699000000,   1.54400,
,,,0.045700000000,   1.53600,
,,,0.045701000000,   1.53600,
,,,0.045702000000,   1.54400,
,,,0.045703000000,   1.54400,
,,,0.045704000000,   1.54400,
,,,0.045705000000,   1.53600,
,,,0.045706000000,   1.54400,
,,,0.045707000000,   1.54400,
,,,0.045708000000,   1.53600,
,,,0.045709000000,   1.54400,
,,,0.045710000000,   1.54400,
,,,0.045711000000,   1.54400,
,,,0.045712000000,   1.54400,
,,,0.045713000000,   1.54400,
,,,0.045714000000,   1.54400,
,,,0.045715000000,   1.54400,
,,,0.045716000000,   1.54400,
,,,0.045717000000,   1.54400,
,,,0.045718000000,   1.54400,
,,,0.045719000000,   1.54400,
,,,0.045720000000,   1.54400,
,,,0.045721000000,   1.54400,
,,,0.045722000000,   1.54400,
,,,0.045723000000,   1.54400,
,,,0.045724000000,   1.54400,
,,,0.045725000000,   1.54400,
,,,0.045726000000,   1.54400,
,,,0.045727000000,   1.54400,
,,,0.045728000000,   1.54400,
,,,0.045729000000,   1.54400,
,,,0.045730000000,   1.54400,
,,,0.045731000000,   1.54400,
,,,0.045732000000,   1.54400,
,,,0.045733000000,   1.54400,
,,,0.045734000000,   1.54400,
,,,0.045735000000,   1.54400,
,,,0.045736000000,   1.54400,
,,,0.045737000000,   1.54400,
,,,0.045738000000,   1.54400,
,,,0.045739000000,   1.54400,
,,,0.045740000000,   1.55200,
,,,0.045741000000,   1.54400,
,,,0.045742000000,   1.54400,
,,,0.045743000000,   1.54400,
,,,0.045744000000,   1.54400,
,,,0.045745000000,   1.54400,
,,,0.045746000000,   1.54400,
,,,0.045747000000,   1.54400,
,,,0.045748000000,   1.54400,
,,,0.045749000000,   1.55200,
,,,0.045750000000,   1.55200,
,,,0.045751000000,   1.54400,
,,,0.045752000000,   1.54400,
,,,0.045753000000,   1.54400,
,,,0.045754000000,   1.55200,
,,,0.045755000000,   1.55200,
,,,0.045756000000,   1.55200,
,,,0.045757000000,   1.54400,
,,,0.045758000000,   1.54400,
,,,0.045759000000,   1.54400,
,,,0.045760000000,   1.54400,
,,,0.045761000000,   1.55200,
,,,0.045762000000,   1.55200,
,,,0.045763000000,   1.55200,
,,,0.045764000000,   1.55200,
,,,0.045765000000,   1.55200,
,,,0.045766000000,   1.55200,
,,,0.045767000000,   1.55200,
,,,0.045768000000,   1.55200,
,,,0.045769000000,   1.55200,
,,,0.045770000000,   1.55200,
,,,0.045771000000,   1.54400,
,,,0.045772000000,   1.55200,
,,,0.045773000000,   1.54400,
,,,0.045774000000,   1.55200,
,,,0.045775000000,   1.55200,
,,,0.045776000000,   1.55200,
,,,0.045777000000,   1.55200,
,,,0.045778000000,   1.55200,
,,,0.045779000000,   1.55200,
,,,0.045780000000,   1.55200,
,,,0.045781000000,   1.55200,
,,,0.045782000000,   1.55200,
,,,0.045783000000,   1.55200,
,,,0.045784000000,   1.55200,
,,,0.045785000000,   1.55200,
,,,0.045786000000,   1.55200,
,,,0.045787000000,   1.55200,
,,,0.045788000000,   1.54400,
,,,0.045789000000,   1.55200,
,,,0.045790000000,   1.55200,
,,,0.045791000000,   1.55200,
,,,0.045792000000,   1.55200,
,,,0.045793000000,   1.55200,
,,,0.045794000000,   1.55200,
,,,0.045795000000,   1.55200,
,,,0.045796000000,   1.55200,
,,,0.045797000000,   1.55200,
,,,0.045798000000,   1.55200,
,,,0.045799000000,   1.55200,
,,,0.045800000000,   1.55200,
,,,0.045801000000,   1.55200,
,,,0.045802000000,   1.55200,
,,,0.045803000000,   1.55200,
,,,0.045804000000,   1.55200,
,,,0.045805000000,   1.55200,
,,,0.045806000000,   1.55200,
,,,0.045807000000,   1.55200,
,,,0.045808000000,   1.55200,
,,,0.045809000000,   1.55200,
,,,0.045810000000,   1.55200,
,,,0.045811000000,   1.55200,
,,,0.045812000000,   1.55200,
,,,0.045813000000,   1.55200,
,,,0.045814000000,   1.55200,
,,,0.045815000000,   1.55200,
,,,0.045816000000,   1.55200,
,,,0.045817000000,   1.55200,
,,,0.045818000000,   1.55200,
,,,0.045819000000,   1.55200,
,,,0.045820000000,   1.55200,
,,,0.045821000000,   1.55200,
,,,0.045822000000,   1.55200,
,,,0.045823000000,   1.55200,
,,,0.045824000000,   1.55200,
,,,0.045825000000,   1.55200,
,,,0.045826000000,   1.55200,
,,,0.045827000000,   1.55200,
,,,0.045828000000,   1.55200,
,,,0.045829000000,   1.55200,
,,,0.045830000000,   1.55200,
,,,0.045831000000,   1.55200,
,,,0.045832000000,   1.55200,
,,,0.045833000000,   1.55200,
,,,0.045834000000,   1.55200,
,,,0.045835000000,   1.55200,
,,,0.045836000000,   1.55200,
,,,0.045837000000,   1.55200,
,,,0.045838000000,   1.55200,
,,,0.045839000000,   1.55200,
,,,0.045840000000,   1.55200,
,,,0.045841000000,   1.55200,
,,,0.045842000000,   1.55200,
,,,0.045843000000,   1.55200,
,,,0.045844000000,   1.55200,
,,,0.045845000000,   1.55200,
,,,0.045846000000,   1.55200,
,,,0.045847000000,   1.55200,
,,,0.045848000000,   1.55200,
,,,0.045849000000,   1.55200,
,,,0.045850000000,   1.55200,
,,,0.045851000000,   1.55200,
,,,0.045852000000,   1.55200,
,,,0.045853000000,   1.55200,
,,,0.045854000000,   1.55200,
,,,0.045855000000,   1.55200,
,,,0.045856000000,   1.55200,
,,,0.045857000000,   1.56000,
,,,0.045858000000,   1.55200,
,,,0.045859000000,   1.56000,
,,,0.045860000000,   1.55200,
,,,0.045861000000,   1.56000,
,,,0.045862000000,   1.55200,
,,,0.045863000000,   1.55200,
,,,0.045864000000,   1.55200,
,,,0.045865000000,   1.55200,
,,,0.045866000000,   1.55200,
,,,0.045867000000,   1.55200,
,,,0.045868000000,   1.55200,
,,,0.045869000000,   1.55200,
,,,0.045870000000,   1.55200,
,,,0.045871000000,   1.55200,
,,,0.045872000000,   1.55200,
,,,0.045873000000,   1.55200,
,,,0.045874000000,   1.55200,
,,,0.045875000000,   1.55200,
,,,0.045876000000,   1.55200,
,,,0.045877000000,   1.55200,
,,,0.045878000000,   1.55200,
,,,0.045879000000,   1.55200,
,,,0.045880000000,   1.55200,
,,,0.045881000000,   1.55200,
,,,0.045882000000,   1.55200,
,,,0.045883000000,   1.55200,
,,,0.045884000000,   1.55200,
,,,0.045885000000,   1.55200,
,,,0.045886000000,   1.55200,
,,,0.045887000000,   1.55200,
,,,0.045888000000,   1.55200,
,,,0.045889000000,   1.55200,
,,,0.045890000000,   1.55200,
,,,0.045891000000,   1.56000,
,,,0.045892000000,   1.56000,
,,,0.045893000000,   1.55200,
,,,0.045894000000,   1.55200,
,,,0.045895000000,   1.55200,
,,,0.045896000000,   1.55200,
,,,0.045897000000,   1.55200,
,,,0.045898000000,   1.55200,
,,,0.045899000000,   1.55200,
,,,0.045900000000,   1.55200,
,,,0.045901000000,   1.55200,
,,,0.045902000000,   1.55200,
,,,0.045903000000,   1.56000,
,,,0.045904000000,   1.55200,
,,,0.045905000000,   1.55200,
,,,0.045906000000,   1.55200,
,,,0.045907000000,   1.55200,
,,,0.045908000000,   1.55200,
,,,0.045909000000,   1.55200,
,,,0.045910000000,   1.55200,
,,,0.045911000000,   1.55200,
,,,0.045912000000,   1.55200,
,,,0.045913000000,   1.55200,
,,,0.045914000000,   1.55200,
,,,0.045915000000,   1.55200,
,,,0.045916000000,   1.55200,
,,,0.045917000000,   1.55200,
,,,0.045918000000,   1.55200,
,,,0.045919000000,   1.55200,
,,,0.045920000000,   1.56000,
,,,0.045921000000,   1.55200,
,,,0.045922000000,   1.55200,
,,,0.045923000000,   1.55200,
,,,0.045924000000,   1.55200,
,,,0.045925000000,   1.55200,
,,,0.045926000000,   1.55200,
,,,0.045927000000,   1.56000,
,,,0.045928000000,   1.55200,
,,,0.045929000000,   1.56000,
,,,0.045930000000,   1.55200,
,,,0.045931000000,   1.55200,
,,,0.045932000000,   1.55200,
,,,0.045933000000,   1.55200,
,,,0.045934000000,   1.55200,
,,,0.045935000000,   1.56000,
,,,0.045936000000,   1.55200,
,,,0.045937000000,   1.55200,
,,,0.045938000000,   1.55200,
,,,0.045939000000,   1.55200,
,,,0.045940000000,   1.55200,
,,,0.045941000000,   1.55200,
,,,0.045942000000,   1.55200,
,,,0.045943000000,   1.55200,
,,,0.045944000000,   1.55200,
,,,0.045945000000,   1.55200,
,,,0.045946000000,   1.55200,
,,,0.045947000000,   1.55200,
,,,0.045948000000,   1.55200,
,,,0.045949000000,   1.55200,
,,,0.045950000000,   1.55200,
,,,0.045951000000,   1.55200,
,,,0.045952000000,   1.55200,
,,,0.045953000000,   1.55200,
,,,0.045954000000,   1.55200,
,,,0.045955000000,   1.55200,
,,,0.045956000000,   1.55200,
,,,0.045957000000,   1.55200,
,,,0.045958000000,   1.55200,
,,,0.045959000000,   1.55200,
,,,0.045960000000,   1.55200,
,,,0.045961000000,   1.55200,
,,,0.045962000000,   1.55200,
,,,0.045963000000,   1.55200,
,,,0.045964000000,   1.55200,
,,,0.045965000000,   1.55200,
,,,0.045966000000,   1.55200,
,,,0.045967000000,   1.55200,
,,,0.045968000000,   1.55200,
,,,0.045969000000,   1.55200,
,,,0.045970000000,   1.55200,
,,,0.045971000000,   1.55200,
,,,0.045972000000,   1.55200,
,,,0.045973000000,   1.54400,
,,,0.045974000000,   1.55200,
,,,0.045975000000,   1.55200,
,,,0.045976000000,   1.54400,
,,,0.045977000000,   1.55200,
,,,0.045978000000,   1.55200,
,,,0.045979000000,   1.55200,
,,,0.045980000000,   1.55200,
,,,0.045981000000,   1.55200,
,,,0.045982000000,   1.55200,
,,,0.045983000000,   1.54400,
,,,0.045984000000,   1.54400,
,,,0.045985000000,   1.55200,
,,,0.045986000000,   1.54400,
,,,0.045987000000,   1.55200,
,,,0.045988000000,   1.54400,
,,,0.045989000000,   1.55200,
,,,0.045990000000,   1.55200,
,,,0.045991000000,   1.55200,
,,,0.045992000000,   1.55200,
,,,0.045993000000,   1.54400,
,,,0.045994000000,   1.55200,
,,,0.045995000000,   1.54400,
,,,0.045996000000,   1.54400,
,,,0.045997000000,   1.54400,
,,,0.045998000000,   1.55200,
,,,0.045999000000,   1.54400,
,,,0.046000000000,   1.55200,
,,,0.046001000000,   1.54400,
,,,0.046002000000,   1.54400,
,,,0.046003000000,   1.54400,
,,,0.046004000000,   1.54400,
,,,0.046005000000,   1.54400,
,,,0.046006000000,   1.54400,
,,,0.046007000000,   1.54400,
,,,0.046008000000,   1.54400,
,,,0.046009000000,   1.54400,
,,,0.046010000000,   1.54400,
,,,0.046011000000,   1.54400,
,,,0.046012000000,   1.54400,
,,,0.046013000000,   1.54400,
,,,0.046014000000,   1.54400,
,,,0.046015000000,   1.54400,
,,,0.046016000000,   1.53600,
,,,0.046017000000,   1.54400,
,,,0.046018000000,   1.53600,
,,,0.046019000000,   1.54400,
,,,0.046020000000,   1.54400,
,,,0.046021000000,   1.53600,
,,,0.046022000000,   1.54400,
,,,0.046023000000,   1.53600,
,,,0.046024000000,   1.53600,
,,,0.046025000000,   1.53600,
,,,0.046026000000,   1.53600,
,,,0.046027000000,   1.54400,
,,,0.046028000000,   1.54400,
,,,0.046029000000,   1.53600,
,,,0.046030000000,   1.54400,
,,,0.046031000000,   1.54400,
,,,0.046032000000,   1.53600,
,,,0.046033000000,   1.53600,
,,,0.046034000000,   1.54400,
,,,0.046035000000,   1.53600,
,,,0.046036000000,   1.53600,
,,,0.046037000000,   1.53600,
,,,0.046038000000,   1.53600,
,,,0.046039000000,   1.53600,
,,,0.046040000000,   1.53600,
,,,0.046041000000,   1.54400,
,,,0.046042000000,   1.53600,
,,,0.046043000000,   1.53600,
,,,0.046044000000,   1.52800,
,,,0.046045000000,   1.53600,
,,,0.046046000000,   1.53600,
,,,0.046047000000,   1.53600,
,,,0.046048000000,   1.53600,
,,,0.046049000000,   1.53600,
,,,0.046050000000,   1.53600,
,,,0.046051000000,   1.53600,
,,,0.046052000000,   1.52800,
,,,0.046053000000,   1.52800,
,,,0.046054000000,   1.52800,
,,,0.046055000000,   1.52800,
,,,0.046056000000,   1.53600,
,,,0.046057000000,   1.53600,
,,,0.046058000000,   1.53600,
,,,0.046059000000,   1.52800,
,,,0.046060000000,   1.52800,
,,,0.046061000000,   1.52800,
,,,0.046062000000,   1.52800,
,,,0.046063000000,   1.52800,
,,,0.046064000000,   1.52800,
,,,0.046065000000,   1.52800,
,,,0.046066000000,   1.52800,
,,,0.046067000000,   1.52800,
,,,0.046068000000,   1.52800,
,,,0.046069000000,   1.52800,
,,,0.046070000000,   1.52800,
,,,0.046071000000,   1.52800,
,,,0.046072000000,   1.52800,
,,,0.046073000000,   1.52800,
,,,0.046074000000,   1.52800,
,,,0.046075000000,   1.52800,
,,,0.046076000000,   1.52800,
,,,0.046077000000,   1.52000,
,,,0.046078000000,   1.52800,
,,,0.046079000000,   1.52000,
,,,0.046080000000,   1.52800,
,,,0.046081000000,   1.52000,
,,,0.046082000000,   1.52800,
,,,0.046083000000,   1.52000,
,,,0.046084000000,   1.52000,
,,,0.046085000000,   1.52000,
,,,0.046086000000,   1.52000,
,,,0.046087000000,   1.52000,
,,,0.046088000000,   1.52000,
,,,0.046089000000,   1.52000,
,,,0.046090000000,   1.52000,
,,,0.046091000000,   1.52000,
,,,0.046092000000,   1.52000,
,,,0.046093000000,   1.52000,
,,,0.046094000000,   1.52000,
,,,0.046095000000,   1.52000,
,,,0.046096000000,   1.52000,
,,,0.046097000000,   1.52000,
,,,0.046098000000,   1.52000,
,,,0.046099000000,   1.52000,
,,,0.046100000000,   1.52000,
,,,0.046101000000,   1.52000,
,,,0.046102000000,   1.51200,
,,,0.046103000000,   1.51200,
,,,0.046104000000,   1.51200,
,,,0.046105000000,   1.51200,
,,,0.046106000000,   1.51200,
,,,0.046107000000,   1.51200,
,,,0.046108000000,   1.51200,
,,,0.046109000000,   1.51200,
,,,0.046110000000,   1.51200,
,,,0.046111000000,   1.51200,
,,,0.046112000000,   1.51200,
,,,0.046113000000,   1.51200,
,,,0.046114000000,   1.51200,
,,,0.046115000000,   1.50400,
,,,0.046116000000,   1.50400,
,,,0.046117000000,   1.51200,
,,,0.046118000000,   1.50400,
,,,0.046119000000,   1.51200,
,,,0.046120000000,   1.50400,
,,,0.046121000000,   1.51200,
,,,0.046122000000,   1.50400,
,,,0.046123000000,   1.50400,
,,,0.046124000000,   1.50400,
,,,0.046125000000,   1.50400,
,,,0.046126000000,   1.50400,
,,,0.046127000000,   1.49600,
,,,0.046128000000,   1.50400,
,,,0.046129000000,   1.50400,
,,,0.046130000000,   1.49600,
,,,0.046131000000,   1.50400,
,,,0.046132000000,   1.49600,
,,,0.046133000000,   1.49600,
,,,0.046134000000,   1.49600,
,,,0.046135000000,   1.49600,
,,,0.046136000000,   1.49600,
,,,0.046137000000,   1.49600,
,,,0.046138000000,   1.49600,
,,,0.046139000000,   1.49600,
,,,0.046140000000,   1.49600,
,,,0.046141000000,   1.49600,
,,,0.046142000000,   1.49600,
,,,0.046143000000,   1.49600,
,,,0.046144000000,   1.49600,
,,,0.046145000000,   1.48800,
,,,0.046146000000,   1.48800,
,,,0.046147000000,   1.48800,
,,,0.046148000000,   1.48800,
,,,0.046149000000,   1.48800,
,,,0.046150000000,   1.48800,
,,,0.046151000000,   1.48800,
,,,0.046152000000,   1.48800,
,,,0.046153000000,   1.48800,
,,,0.046154000000,   1.48000,
,,,0.046155000000,   1.48800,
,,,0.046156000000,   1.48000,
,,,0.046157000000,   1.48000,
,,,0.046158000000,   1.48800,
,,,0.046159000000,   1.48800,
,,,0.046160000000,   1.48000,
,,,0.046161000000,   1.48000,
,,,0.046162000000,   1.48000,
,,,0.046163000000,   1.48000,
,,,0.046164000000,   1.47200,
,,,0.046165000000,   1.47200,
,,,0.046166000000,   1.47200,
,,,0.046167000000,   1.47200,
,,,0.046168000000,   1.47200,
,,,0.046169000000,   1.48000,
,,,0.046170000000,   1.47200,
,,,0.046171000000,   1.47200,
,,,0.046172000000,   1.47200,
,,,0.046173000000,   1.47200,
,,,0.046174000000,   1.47200,
,,,0.046175000000,   1.47200,
,,,0.046176000000,   1.47200,
,,,0.046177000000,   1.47200,
,,,0.046178000000,   1.46400,
,,,0.046179000000,   1.46400,
,,,0.046180000000,   1.46400,
,,,0.046181000000,   1.46400,
,,,0.046182000000,   1.46400,
,,,0.046183000000,   1.46400,
,,,0.046184000000,   1.46400,
,,,0.046185000000,   1.46400,
,,,0.046186000000,   1.46400,
,,,0.046187000000,   1.46400,
,,,0.046188000000,   1.45600,
,,,0.046189000000,   1.45600,
,,,0.046190000000,   1.45600,
,,,0.046191000000,   1.45600,
,,,0.046192000000,   1.45600,
,,,0.046193000000,   1.45600,
,,,0.046194000000,   1.44800,
,,,0.046195000000,   1.45600,
,,,0.046196000000,   1.44800,
,,,0.046197000000,   1.44800,
,,,0.046198000000,   1.44800,
,,,0.046199000000,   1.44800,
,,,0.046200000000,   1.44800,
,,,0.046201000000,   1.44800,
,,,0.046202000000,   1.44000,
,,,0.046203000000,   1.44800,
