PD2_DF_DIP1.CSV

Record Length,2.500000e+03,,   0.036162000000,   0.51760,
Sample Interval,1.000000e-06,,   0.036163000000,   0.51680,
Trigger Point,-3.616200000000e+04,,   0.036164000000,   0.51680,
,,,   0.036165000000,   0.51840,
,,,   0.036166000000,   0.51920,
,,,   0.036167000000,   0.51840,
Source,CH3,,   0.036168000000,   0.51840,
Vertical Units,V,,   0.036169000000,   0.51840,
Vertical Scale,2.000000e-02,,   0.036170000000,   0.51840,
Vertical Offset,-6.088000e-01,,   0.036171000000,   0.51920,
Horizontal Units,s,,   0.036172000000,   0.51920,
Horizontal Scale,2.500000e-04,,   0.036173000000,   0.52000,
Pt Fmt,Y,,   0.036174000000,   0.51920,
Yzero,0.000000e+00,,   0.036175000000,   0.52000,
Probe Atten,1.000000e+00,,   0.036176000000,   0.52000,
Model Number,TDS2024B,,   0.036177000000,   0.51920,
Serial Number,C104837,,   0.036178000000,   0.52080,
Firmware Version,FV:v24.02,,   0.036179000000,   0.52000,
,,,0.036180000000,   0.52000,
,,,0.036181000000,   0.52000,
,,,0.036182000000,   0.51920,
,,,0.036183000000,   0.52160,
,,,0.036184000000,   0.52080,
,,,0.036185000000,   0.52160,
,,,0.036186000000,   0.52160,
,,,0.036187000000,   0.52080,
,,,0.036188000000,   0.52160,
,,,0.036189000000,   0.52240,
,,,0.036190000000,   0.52240,
,,,0.036191000000,   0.52160,
,,,0.036192000000,   0.52240,
,,,0.036193000000,   0.52320,
,,,0.036194000000,   0.52320,
,,,0.036195000000,   0.52400,
,,,0.036196000000,   0.52320,
,,,0.036197000000,   0.52240,
,,,0.036198000000,   0.52400,
,,,0.036199000000,   0.52400,
,,,0.036200000000,   0.52400,
,,,0.036201000000,   0.52400,
,,,0.036202000000,   0.52240,
,,,0.036203000000,   0.52400,
,,,0.036204000000,   0.52480,
,,,0.036205000000,   0.52560,
,,,0.036206000000,   0.52560,
,,,0.036207000000,   0.52480,
,,,0.036208000000,   0.52480,
,,,0.036209000000,   0.52640,
,,,0.036210000000,   0.52560,
,,,0.036211000000,   0.52560,
,,,0.036212000000,   0.52720,
,,,0.036213000000,   0.52640,
,,,0.036214000000,   0.52560,
,,,0.036215000000,   0.52480,
,,,0.036216000000,   0.52720,
,,,0.036217000000,   0.52800,
,,,0.036218000000,   0.52720,
,,,0.036219000000,   0.52720,
,,,0.036220000000,   0.52800,
,,,0.036221000000,   0.52800,
,,,0.036222000000,   0.52720,
,,,0.036223000000,   0.52880,
,,,0.036224000000,   0.52800,
,,,0.036225000000,   0.52960,
,,,0.036226000000,   0.52880,
,,,0.036227000000,   0.52880,
,,,0.036228000000,   0.52880,
,,,0.036229000000,   0.52880,
,,,0.036230000000,   0.52880,
,,,0.036231000000,   0.52960,
,,,0.036232000000,   0.52880,
,,,0.036233000000,   0.52880,
,,,0.036234000000,   0.52960,
,,,0.036235000000,   0.52960,
,,,0.036236000000,   0.52880,
,,,0.036237000000,   0.52960,
,,,0.036238000000,   0.52960,
,,,0.036239000000,   0.53120,
,,,0.036240000000,   0.52880,
,,,0.036241000000,   0.52960,
,,,0.036242000000,   0.53040,
,,,0.036243000000,   0.53120,
,,,0.036244000000,   0.53040,
,,,0.036245000000,   0.53120,
,,,0.036246000000,   0.53280,
,,,0.036247000000,   0.53120,
,,,0.036248000000,   0.53120,
,,,0.036249000000,   0.53200,
,,,0.036250000000,   0.53120,
,,,0.036251000000,   0.53200,
,,,0.036252000000,   0.53280,
,,,0.036253000000,   0.53200,
,,,0.036254000000,   0.53280,
,,,0.036255000000,   0.53200,
,,,0.036256000000,   0.53360,
,,,0.036257000000,   0.53360,
,,,0.036258000000,   0.53360,
,,,0.036259000000,   0.53360,
,,,0.036260000000,   0.53360,
,,,0.036261000000,   0.53360,
,,,0.036262000000,   0.53360,
,,,0.036263000000,   0.53440,
,,,0.036264000000,   0.53440,
,,,0.036265000000,   0.53520,
,,,0.036266000000,   0.53440,
,,,0.036267000000,   0.53520,
,,,0.036268000000,   0.53520,
,,,0.036269000000,   0.53520,
,,,0.036270000000,   0.53520,
,,,0.036271000000,   0.53600,
,,,0.036272000000,   0.53520,
,,,0.036273000000,   0.53680,
,,,0.036274000000,   0.53680,
,,,0.036275000000,   0.53680,
,,,0.036276000000,   0.53680,
,,,0.036277000000,   0.53680,
,,,0.036278000000,   0.53760,
,,,0.036279000000,   0.53760,
,,,0.036280000000,   0.53760,
,,,0.036281000000,   0.53760,
,,,0.036282000000,   0.53680,
,,,0.036283000000,   0.53680,
,,,0.036284000000,   0.54000,
,,,0.036285000000,   0.53760,
,,,0.036286000000,   0.53840,
,,,0.036287000000,   0.54000,
,,,0.036288000000,   0.53840,
,,,0.036289000000,   0.53840,
,,,0.036290000000,   0.53840,
,,,0.036291000000,   0.54000,
,,,0.036292000000,   0.53840,
,,,0.036293000000,   0.53920,
,,,0.036294000000,   0.54080,
,,,0.036295000000,   0.54000,
,,,0.036296000000,   0.54000,
,,,0.036297000000,   0.54000,
,,,0.036298000000,   0.54160,
,,,0.036299000000,   0.54000,
,,,0.036300000000,   0.54080,
,,,0.036301000000,   0.54000,
,,,0.036302000000,   0.54000,
,,,0.036303000000,   0.54080,
,,,0.036304000000,   0.54240,
,,,0.036305000000,   0.54160,
,,,0.036306000000,   0.54320,
,,,0.036307000000,   0.54240,
,,,0.036308000000,   0.54240,
,,,0.036309000000,   0.54240,
,,,0.036310000000,   0.54240,
,,,0.036311000000,   0.54240,
,,,0.036312000000,   0.54240,
,,,0.036313000000,   0.54240,
,,,0.036314000000,   0.54320,
,,,0.036315000000,   0.54240,
,,,0.036316000000,   0.54320,
,,,0.036317000000,   0.54400,
,,,0.036318000000,   0.54400,
,,,0.036319000000,   0.54400,
,,,0.036320000000,   0.54320,
,,,0.036321000000,   0.54400,
,,,0.036322000000,   0.54480,
,,,0.036323000000,   0.54480,
,,,0.036324000000,   0.54560,
,,,0.036325000000,   0.54320,
,,,0.036326000000,   0.54560,
,,,0.036327000000,   0.54560,
,,,0.036328000000,   0.54560,
,,,0.036329000000,   0.54560,
,,,0.036330000000,   0.54560,
,,,0.036331000000,   0.54720,
,,,0.036332000000,   0.54640,
,,,0.036333000000,   0.54640,
,,,0.036334000000,   0.54640,
,,,0.036335000000,   0.54720,
,,,0.036336000000,   0.54720,
,,,0.036337000000,   0.54640,
,,,0.036338000000,   0.54720,
,,,0.036339000000,   0.54640,
,,,0.036340000000,   0.54720,
,,,0.036341000000,   0.54800,
,,,0.036342000000,   0.54800,
,,,0.036343000000,   0.54720,
,,,0.036344000000,   0.54800,
,,,0.036345000000,   0.54720,
,,,0.036346000000,   0.54800,
,,,0.036347000000,   0.54720,
,,,0.036348000000,   0.54720,
,,,0.036349000000,   0.54880,
,,,0.036350000000,   0.54960,
,,,0.036351000000,   0.54960,
,,,0.036352000000,   0.54880,
,,,0.036353000000,   0.55040,
,,,0.036354000000,   0.54960,
,,,0.036355000000,   0.55040,
,,,0.036356000000,   0.54960,
,,,0.036357000000,   0.55040,
,,,0.036358000000,   0.54960,
,,,0.036359000000,   0.55040,
,,,0.036360000000,   0.55040,
,,,0.036361000000,   0.55040,
,,,0.036362000000,   0.55040,
,,,0.036363000000,   0.55040,
,,,0.036364000000,   0.55120,
,,,0.036365000000,   0.55120,
,,,0.036366000000,   0.55120,
,,,0.036367000000,   0.55280,
,,,0.036368000000,   0.55200,
,,,0.036369000000,   0.55120,
,,,0.036370000000,   0.55280,
,,,0.036371000000,   0.55280,
,,,0.036372000000,   0.55360,
,,,0.036373000000,   0.55280,
,,,0.036374000000,   0.55360,
,,,0.036375000000,   0.55200,
,,,0.036376000000,   0.55200,
,,,0.036377000000,   0.55360,
,,,0.036378000000,   0.55440,
,,,0.036379000000,   0.55360,
,,,0.036380000000,   0.55440,
,,,0.036381000000,   0.55440,
,,,0.036382000000,   0.55360,
,,,0.036383000000,   0.55440,
,,,0.036384000000,   0.55520,
,,,0.036385000000,   0.55520,
,,,0.036386000000,   0.55520,
,,,0.036387000000,   0.55440,
,,,0.036388000000,   0.55440,
,,,0.036389000000,   0.55520,
,,,0.036390000000,   0.55520,
,,,0.036391000000,   0.55600,
,,,0.036392000000,   0.55520,
,,,0.036393000000,   0.55600,
,,,0.036394000000,   0.55760,
,,,0.036395000000,   0.55680,
,,,0.036396000000,   0.55680,
,,,0.036397000000,   0.55680,
,,,0.036398000000,   0.55680,
,,,0.036399000000,   0.55600,
,,,0.036400000000,   0.55600,
,,,0.036401000000,   0.55600,
,,,0.036402000000,   0.55680,
,,,0.036403000000,   0.55760,
,,,0.036404000000,   0.55680,
,,,0.036405000000,   0.55760,
,,,0.036406000000,   0.55760,
,,,0.036407000000,   0.55840,
,,,0.036408000000,   0.55840,
,,,0.036409000000,   0.56000,
,,,0.036410000000,   0.55920,
,,,0.036411000000,   0.55920,
,,,0.036412000000,   0.55840,
,,,0.036413000000,   0.56000,
,,,0.036414000000,   0.56000,
,,,0.036415000000,   0.56000,
,,,0.036416000000,   0.55920,
,,,0.036417000000,   0.55920,
,,,0.036418000000,   0.55840,
,,,0.036419000000,   0.56080,
,,,0.036420000000,   0.56080,
,,,0.036421000000,   0.55920,
,,,0.036422000000,   0.56160,
,,,0.036423000000,   0.55920,
,,,0.036424000000,   0.56160,
,,,0.036425000000,   0.56080,
,,,0.036426000000,   0.56080,
,,,0.036427000000,   0.56160,
,,,0.036428000000,   0.56240,
,,,0.036429000000,   0.56080,
,,,0.036430000000,   0.56240,
,,,0.036431000000,   0.56160,
,,,0.036432000000,   0.56160,
,,,0.036433000000,   0.56240,
,,,0.036434000000,   0.56240,
,,,0.036435000000,   0.56160,
,,,0.036436000000,   0.56320,
,,,0.036437000000,   0.56320,
,,,0.036438000000,   0.56240,
,,,0.036439000000,   0.56320,
,,,0.036440000000,   0.56320,
,,,0.036441000000,   0.56320,
,,,0.036442000000,   0.56320,
,,,0.036443000000,   0.56320,
,,,0.036444000000,   0.56400,
,,,0.036445000000,   0.56400,
,,,0.036446000000,   0.56480,
,,,0.036447000000,   0.56400,
,,,0.036448000000,   0.56480,
,,,0.036449000000,   0.56480,
,,,0.036450000000,   0.56480,
,,,0.036451000000,   0.56640,
,,,0.036452000000,   0.56560,
,,,0.036453000000,   0.56560,
,,,0.036454000000,   0.56640,
,,,0.036455000000,   0.56480,
,,,0.036456000000,   0.56640,
,,,0.036457000000,   0.56720,
,,,0.036458000000,   0.56720,
,,,0.036459000000,   0.56560,
,,,0.036460000000,   0.56640,
,,,0.036461000000,   0.56640,
,,,0.036462000000,   0.56640,
,,,0.036463000000,   0.56720,
,,,0.036464000000,   0.56640,
,,,0.036465000000,   0.56720,
,,,0.036466000000,   0.56720,
,,,0.036467000000,   0.56640,
,,,0.036468000000,   0.56720,
,,,0.036469000000,   0.56720,
,,,0.036470000000,   0.56720,
,,,0.036471000000,   0.56800,
,,,0.036472000000,   0.56720,
,,,0.036473000000,   0.56880,
,,,0.036474000000,   0.56960,
,,,0.036475000000,   0.56800,
,,,0.036476000000,   0.56960,
,,,0.036477000000,   0.56800,
,,,0.036478000000,   0.56880,
,,,0.036479000000,   0.56960,
,,,0.036480000000,   0.56880,
,,,0.036481000000,   0.56880,
,,,0.036482000000,   0.56960,
,,,0.036483000000,   0.56960,
,,,0.036484000000,   0.56960,
,,,0.036485000000,   0.56960,
,,,0.036486000000,   0.57120,
,,,0.036487000000,   0.57040,
,,,0.036488000000,   0.57040,
,,,0.036489000000,   0.57040,
,,,0.036490000000,   0.57120,
,,,0.036491000000,   0.57200,
,,,0.036492000000,   0.57200,
,,,0.036493000000,   0.57120,
,,,0.036494000000,   0.57120,
,,,0.036495000000,   0.57280,
,,,0.036496000000,   0.57200,
,,,0.036497000000,   0.57120,
,,,0.036498000000,   0.57200,
,,,0.036499000000,   0.57200,
,,,0.036500000000,   0.57280,
,,,0.036501000000,   0.57360,
,,,0.036502000000,   0.57360,
,,,0.036503000000,   0.57360,
,,,0.036504000000,   0.57280,
,,,0.036505000000,   0.57360,
,,,0.036506000000,   0.57360,
,,,0.036507000000,   0.57440,
,,,0.036508000000,   0.57360,
,,,0.036509000000,   0.57440,
,,,0.036510000000,   0.57440,
,,,0.036511000000,   0.57440,
,,,0.036512000000,   0.57360,
,,,0.036513000000,   0.57440,
,,,0.036514000000,   0.57360,
,,,0.036515000000,   0.57520,
,,,0.036516000000,   0.57520,
,,,0.036517000000,   0.57520,
,,,0.036518000000,   0.57440,
,,,0.036519000000,   0.57520,
,,,0.036520000000,   0.57520,
,,,0.036521000000,   0.57520,
,,,0.036522000000,   0.57680,
,,,0.036523000000,   0.57600,
,,,0.036524000000,   0.57680,
,,,0.036525000000,   0.57680,
,,,0.036526000000,   0.57600,
,,,0.036527000000,   0.57680,
,,,0.036528000000,   0.57680,
,,,0.036529000000,   0.57680,
,,,0.036530000000,   0.57600,
,,,0.036531000000,   0.57680,
,,,0.036532000000,   0.57680,
,,,0.036533000000,   0.57680,
,,,0.036534000000,   0.57600,
,,,0.036535000000,   0.57840,
,,,0.036536000000,   0.57760,
,,,0.036537000000,   0.57680,
,,,0.036538000000,   0.57680,
,,,0.036539000000,   0.57840,
,,,0.036540000000,   0.57760,
,,,0.036541000000,   0.57760,
,,,0.036542000000,   0.57840,
,,,0.036543000000,   0.57840,
,,,0.036544000000,   0.57840,
,,,0.036545000000,   0.57920,
,,,0.036546000000,   0.57920,
,,,0.036547000000,   0.57840,
,,,0.036548000000,   0.58000,
,,,0.036549000000,   0.57920,
,,,0.036550000000,   0.57920,
,,,0.036551000000,   0.58000,
,,,0.036552000000,   0.57920,
,,,0.036553000000,   0.57840,
,,,0.036554000000,   0.58000,
,,,0.036555000000,   0.58000,
,,,0.036556000000,   0.58000,
,,,0.036557000000,   0.57920,
,,,0.036558000000,   0.58080,
,,,0.036559000000,   0.58080,
,,,0.036560000000,   0.58000,
,,,0.036561000000,   0.58000,
,,,0.036562000000,   0.58080,
,,,0.036563000000,   0.58160,
,,,0.036564000000,   0.58080,
,,,0.036565000000,   0.58080,
,,,0.036566000000,   0.58160,
,,,0.036567000000,   0.58160,
,,,0.036568000000,   0.58080,
,,,0.036569000000,   0.58160,
,,,0.036570000000,   0.58320,
,,,0.036571000000,   0.58240,
,,,0.036572000000,   0.58240,
,,,0.036573000000,   0.58320,
,,,0.036574000000,   0.58240,
,,,0.036575000000,   0.58240,
,,,0.036576000000,   0.58320,
,,,0.036577000000,   0.58240,
,,,0.036578000000,   0.58240,
,,,0.036579000000,   0.58320,
,,,0.036580000000,   0.58240,
,,,0.036581000000,   0.58400,
,,,0.036582000000,   0.58400,
,,,0.036583000000,   0.58320,
,,,0.036584000000,   0.58320,
,,,0.036585000000,   0.58400,
,,,0.036586000000,   0.58480,
,,,0.036587000000,   0.58400,
,,,0.036588000000,   0.58400,
,,,0.036589000000,   0.58320,
,,,0.036590000000,   0.58400,
,,,0.036591000000,   0.58480,
,,,0.036592000000,   0.58400,
,,,0.036593000000,   0.58480,
,,,0.036594000000,   0.58480,
,,,0.036595000000,   0.58400,
,,,0.036596000000,   0.58320,
,,,0.036597000000,   0.58480,
,,,0.036598000000,   0.58400,
,,,0.036599000000,   0.58640,
,,,0.036600000000,   0.58560,
,,,0.036601000000,   0.58640,
,,,0.036602000000,   0.58480,
,,,0.036603000000,   0.58480,
,,,0.036604000000,   0.58560,
,,,0.036605000000,   0.58640,
,,,0.036606000000,   0.58560,
,,,0.036607000000,   0.58640,
,,,0.036608000000,   0.58560,
,,,0.036609000000,   0.58640,
,,,0.036610000000,   0.58720,
,,,0.036611000000,   0.58640,
,,,0.036612000000,   0.58640,
,,,0.036613000000,   0.58720,
,,,0.036614000000,   0.58640,
,,,0.036615000000,   0.58720,
,,,0.036616000000,   0.58720,
,,,0.036617000000,   0.58720,
,,,0.036618000000,   0.58800,
,,,0.036619000000,   0.58720,
,,,0.036620000000,   0.58720,
,,,0.036621000000,   0.58720,
,,,0.036622000000,   0.58800,
,,,0.036623000000,   0.58880,
,,,0.036624000000,   0.58800,
,,,0.036625000000,   0.58880,
,,,0.036626000000,   0.58720,
,,,0.036627000000,   0.58800,
,,,0.036628000000,   0.58960,
,,,0.036629000000,   0.58960,
,,,0.036630000000,   0.58800,
,,,0.036631000000,   0.58800,
,,,0.036632000000,   0.58800,
,,,0.036633000000,   0.58880,
,,,0.036634000000,   0.58880,
,,,0.036635000000,   0.58880,
,,,0.036636000000,   0.58880,
,,,0.036637000000,   0.58960,
,,,0.036638000000,   0.59040,
,,,0.036639000000,   0.59040,
,,,0.036640000000,   0.59040,
,,,0.036641000000,   0.59040,
,,,0.036642000000,   0.59120,
,,,0.036643000000,   0.59040,
,,,0.036644000000,   0.59040,
,,,0.036645000000,   0.59120,
,,,0.036646000000,   0.59040,
,,,0.036647000000,   0.59120,
,,,0.036648000000,   0.59120,
,,,0.036649000000,   0.59040,
,,,0.036650000000,   0.59120,
,,,0.036651000000,   0.59200,
,,,0.036652000000,   0.59120,
,,,0.036653000000,   0.59200,
,,,0.036654000000,   0.59120,
,,,0.036655000000,   0.59200,
,,,0.036656000000,   0.59120,
,,,0.036657000000,   0.59120,
,,,0.036658000000,   0.59120,
,,,0.036659000000,   0.59040,
,,,0.036660000000,   0.59120,
,,,0.036661000000,   0.59360,
,,,0.036662000000,   0.59280,
,,,0.036663000000,   0.59280,
,,,0.036664000000,   0.59280,
,,,0.036665000000,   0.59280,
,,,0.036666000000,   0.59280,
,,,0.036667000000,   0.59200,
,,,0.036668000000,   0.59280,
,,,0.036669000000,   0.59360,
,,,0.036670000000,   0.59440,
,,,0.036671000000,   0.59280,
,,,0.036672000000,   0.59280,
,,,0.036673000000,   0.59440,
,,,0.036674000000,   0.59280,
,,,0.036675000000,   0.59280,
,,,0.036676000000,   0.59440,
,,,0.036677000000,   0.59360,
,,,0.036678000000,   0.59440,
,,,0.036679000000,   0.59360,
,,,0.036680000000,   0.59360,
,,,0.036681000000,   0.59360,
,,,0.036682000000,   0.59200,
,,,0.036683000000,   0.59360,
,,,0.036684000000,   0.59520,
,,,0.036685000000,   0.59520,
,,,0.036686000000,   0.59520,
,,,0.036687000000,   0.59520,
,,,0.036688000000,   0.59440,
,,,0.036689000000,   0.59520,
,,,0.036690000000,   0.59440,
,,,0.036691000000,   0.59440,
,,,0.036692000000,   0.59440,
,,,0.036693000000,   0.59360,
,,,0.036694000000,   0.59440,
,,,0.036695000000,   0.59520,
,,,0.036696000000,   0.59520,
,,,0.036697000000,   0.59680,
,,,0.036698000000,   0.59600,
,,,0.036699000000,   0.59520,
,,,0.036700000000,   0.59680,
,,,0.036701000000,   0.59600,
,,,0.036702000000,   0.59600,
,,,0.036703000000,   0.59600,
,,,0.036704000000,   0.59600,
,,,0.036705000000,   0.59600,
,,,0.036706000000,   0.59680,
,,,0.036707000000,   0.59680,
,,,0.036708000000,   0.59680,
,,,0.036709000000,   0.59840,
,,,0.036710000000,   0.59680,
,,,0.036711000000,   0.59680,
,,,0.036712000000,   0.59680,
,,,0.036713000000,   0.59680,
,,,0.036714000000,   0.59680,
,,,0.036715000000,   0.59600,
,,,0.036716000000,   0.59680,
,,,0.036717000000,   0.59840,
,,,0.036718000000,   0.59600,
,,,0.036719000000,   0.59680,
,,,0.036720000000,   0.59840,
,,,0.036721000000,   0.59840,
,,,0.036722000000,   0.59760,
,,,0.036723000000,   0.59760,
,,,0.036724000000,   0.59840,
,,,0.036725000000,   0.59840,
,,,0.036726000000,   0.59840,
,,,0.036727000000,   0.59840,
,,,0.036728000000,   0.59760,
,,,0.036729000000,   0.59760,
,,,0.036730000000,   0.59840,
,,,0.036731000000,   0.59840,
,,,0.036732000000,   0.59840,
,,,0.036733000000,   0.59840,
,,,0.036734000000,   0.59920,
,,,0.036735000000,   0.59840,
,,,0.036736000000,   0.59760,
,,,0.036737000000,   0.59760,
,,,0.036738000000,   0.59840,
,,,0.036739000000,   0.59920,
,,,0.036740000000,   0.60000,
,,,0.036741000000,   0.59840,
,,,0.036742000000,   0.59840,
,,,0.036743000000,   0.59920,
,,,0.036744000000,   0.59920,
,,,0.036745000000,   0.59920,
,,,0.036746000000,   0.60080,
,,,0.036747000000,   0.59920,
,,,0.036748000000,   0.60080,
,,,0.036749000000,   0.59920,
,,,0.036750000000,   0.59920,
,,,0.036751000000,   0.60080,
,,,0.036752000000,   0.60080,
,,,0.036753000000,   0.60000,
,,,0.036754000000,   0.60160,
,,,0.036755000000,   0.60000,
,,,0.036756000000,   0.60000,
,,,0.036757000000,   0.59920,
,,,0.036758000000,   0.59920,
,,,0.036759000000,   0.59920,
,,,0.036760000000,   0.59920,
,,,0.036761000000,   0.60000,
,,,0.036762000000,   0.60000,
,,,0.036763000000,   0.59920,
,,,0.036764000000,   0.60000,
,,,0.036765000000,   0.60000,
,,,0.036766000000,   0.60160,
,,,0.036767000000,   0.60080,
,,,0.036768000000,   0.60000,
,,,0.036769000000,   0.60160,
,,,0.036770000000,   0.60000,
,,,0.036771000000,   0.60160,
,,,0.036772000000,   0.60160,
,,,0.036773000000,   0.60160,
,,,0.036774000000,   0.60160,
,,,0.036775000000,   0.60160,
,,,0.036776000000,   0.60080,
,,,0.036777000000,   0.60160,
,,,0.036778000000,   0.60080,
,,,0.036779000000,   0.60080,
,,,0.036780000000,   0.60160,
,,,0.036781000000,   0.60160,
,,,0.036782000000,   0.60160,
,,,0.036783000000,   0.60160,
,,,0.036784000000,   0.60160,
,,,0.036785000000,   0.60160,
,,,0.036786000000,   0.60240,
,,,0.036787000000,   0.60240,
,,,0.036788000000,   0.60320,
,,,0.036789000000,   0.60320,
,,,0.036790000000,   0.60160,
,,,0.036791000000,   0.60080,
,,,0.036792000000,   0.60160,
,,,0.036793000000,   0.60240,
,,,0.036794000000,   0.60320,
,,,0.036795000000,   0.60160,
,,,0.036796000000,   0.60240,
,,,0.036797000000,   0.60160,
,,,0.036798000000,   0.60240,
,,,0.036799000000,   0.60320,
,,,0.036800000000,   0.60320,
,,,0.036801000000,   0.60400,
,,,0.036802000000,   0.60240,
,,,0.036803000000,   0.60240,
,,,0.036804000000,   0.60240,
,,,0.036805000000,   0.60240,
,,,0.036806000000,   0.60320,
,,,0.036807000000,   0.60320,
,,,0.036808000000,   0.60160,
,,,0.036809000000,   0.60160,
,,,0.036810000000,   0.60320,
,,,0.036811000000,   0.60400,
,,,0.036812000000,   0.60240,
,,,0.036813000000,   0.60160,
,,,0.036814000000,   0.60320,
,,,0.036815000000,   0.60400,
